…
```
##       
##           1    2    3    4    5    6    7    8    9   10   11   12
##   2021 3103 1600  897 2399  784 1384 2846  819 1384 2389 1552 2814
##   2022 1374 1156 2560 1673 1013 1857 2577  868    0  996 2619  733
##   2023  915 1040  866  857  732 1068  618  655  639  384  490  772
##   2024  615  374  968    0    0    0    0    0    0    0    0    0
```

```r
size_21_23
```

```
## # A tibble: 50,390 × 12
##    Date                Beach   Sampling.point rastro   CAT Categoria  size sizeE
##    <dttm>              <chr>   <chr>          <chr>  <dbl> <chr>     <dbl> <dbl>
##  1 2021-01-12 00:00:00 Donana… 2              POBLA…     2 g          22.4    22
##  2 2021-01-12 00:00:00 Donana… 2              POBLA…     2 g          23.7    23
##  3 2021-01-12 00:00:00 Donana… 2              POBLA…     2 g          17.9    17
##  4 2021-01-12 00:00:00 Donana… 2              POBLA…     2 g          24.0    23
##  5 2021-01-12 00:00:00 Donana… 2              POBLA…     2 g          22.7    22
##  6 2021-01-12 00:00:00 Donana… 2              POBLA…     2 g          26.0    25
##  7 2021-01-12 00:00:00 Donana… 2              POBLA…     2 g          24.5    24
##  8 2021-01-12 00:00:00 Donana… 2              POBLA…     2 g          24.0    24
##  9 2021-01-12 00:00:00 Donana… 2              POBLA…     2 g          22.4    22
## 10 2021-01-12 00:00:00 Donana… 2              POBLA…     2 g          22.5    22
## # ℹ 50,380 more rows
## # ℹ 4 more variables: ID_codificado_muestreo <chr>, DIA <int>, MES <dbl>,
## #   ANO <dbl>
```
…
